# File produced by Open Asset Import Library (http://www.assimp.sf.net)
# (assimp v4.1.944801267)

newmtl DefaultMaterial
Kd 1 1 1
Ka 1 1 1
Ks 1 1 1
Ke 0 0 0
Tf 0 0 0
d 1
Ni 1
illum 1
map_Kd /home/ligx/met3d/export/geometry/Basemap_sc.obj.0.png

